{
  "development": {
    "username": "denis",
    "password": null,
    "database": "koa2",
    "host": "127.0.0.1",
    "dialect": "postgres"
  },
  "test": {
    "username": "denis",
    "password": null,
    "database": "koa2",
    "host": "127.0.0.1",
    "dialect": "postgres"
  },
  "production": {
    "username": "wniinmxpsiwlfq",
    "password": "ccda24198bf7da1cc02d58f4c8421558d9cb5f773443173fb6e7e03e0f1d375d",
    "database": "d2t7ehb0uius77",
    "host": "ec2-23-23-222-147.compute-1.amazonaws.com",
    "dialect": "postgres",
    "dialectOptions": {
      "ssl": true
    }
  }
}
